{
  "testId" : "1-z3repozitorij.gspec",
  "name" : "z3Repozitorij.gspec",
  "report" : {
    "nodes" : [ {
      "name" : "Simple check",
      "status" : "info",
      "nodes" : [ {
        "name" : "check  z3Repozitorij.gspec --url http://localhost/mojRepozitorij.html --size 1024x768 --htmlreport izvjestajRepozitorij",
        "status" : "info",
        "nodes" : [ {
          "name" : "Check layout: z3Repozitorij.gspec included tags: ",
          "status" : "info",
          "time" : 1636867220274,
          "sections" : [ {
            "name" : "Width section",
            "place" : {
              "filePath" : "z3Repozitorij.gspec",
              "lineNumber" : 11
            },
            "objects" : [ {
              "name" : "forma-div",
              "specs" : [ {
                "status" : "info",
                "place" : {
                  "filePath" : "z3Repozitorij.gspec",
                  "lineNumber" : 13
                },
                "name" : "width 48 to 54 % of body/width",
                "meta" : [ {
                  "from" : {
                    "object" : "forma-div",
                    "edge" : "left"
                  },
                  "to" : {
                    "object" : "forma-div",
                    "edge" : "right"
                  },
                  "expectedDistance" : "48 to 54% [478 to 537px]",
                  "realDistance" : "50% [498px]"
                } ],
                "highlight" : [ "forma-div" ]
              } ]
            }, {
              "name" : "forma-repozitorij",
              "specs" : [ {
                "status" : "info",
                "place" : {
                  "filePath" : "z3Repozitorij.gspec",
                  "lineNumber" : 15
                },
                "name" : "width 46 to 52 % of forma-div/width",
                "meta" : [ {
                  "from" : {
                    "object" : "forma-repozitorij",
                    "edge" : "left"
                  },
                  "to" : {
                    "object" : "forma-repozitorij",
                    "edge" : "right"
                  },
                  "expectedDistance" : "46 to 52% [229 to 258px]",
                  "realDistance" : "50% [249px]"
                } ],
                "highlight" : [ "forma-repozitorij" ]
              } ]
            }, {
              "name" : "url",
              "specs" : [ {
                "status" : "info",
                "place" : {
                  "filePath" : "z3Repozitorij.gspec",
                  "lineNumber" : 17
                },
                "name" : "width 98 to 104 % of forma-repozitorij/width",
                "meta" : [ {
                  "from" : {
                    "object" : "url",
                    "edge" : "left"
                  },
                  "to" : {
                    "object" : "url",
                    "edge" : "right"
                  },
                  "expectedDistance" : "98 to 104% [244 to 258px]",
                  "realDistance" : "103% [257px]"
                } ],
                "highlight" : [ "url" ]
              } ]
            } ]
          }, {
            "name" : "Inside section",
            "place" : {
              "filePath" : "z3Repozitorij.gspec",
              "lineNumber" : 22
            },
            "objects" : [ {
              "name" : "forma-repozitorij",
              "specs" : [ {
                "status" : "info",
                "place" : {
                  "filePath" : "z3Repozitorij.gspec",
                  "lineNumber" : 24
                },
                "name" : "inside forma-div",
                "meta" : [ ],
                "highlight" : [ "forma-repozitorij", "forma-div" ]
              } ]
            } ]
          }, {
            "name" : "Above section",
            "place" : {
              "filePath" : "z3Repozitorij.gspec",
              "lineNumber" : 33
            },
            "objects" : [ {
              "name" : "url",
              "specs" : [ {
                "status" : "info",
                "place" : {
                  "filePath" : "z3Repozitorij.gspec",
                  "lineNumber" : 35
                },
                "name" : "above agodina",
                "meta" : [ {
                  "from" : {
                    "object" : "url",
                    "edge" : "bottom"
                  },
                  "to" : {
                    "object" : "agodina",
                    "edge" : "top"
                  },
                  "expectedDistance" : ">= 0px",
                  "realDistance" : "31px"
                } ],
                "highlight" : [ "url", "agodina" ]
              } ]
            }, {
              "name" : "agodina",
              "specs" : [ {
                "status" : "info",
                "place" : {
                  "filePath" : "z3Repozitorij.gspec",
                  "lineNumber" : 37
                },
                "name" : "above ime_brancha",
                "meta" : [ {
                  "from" : {
                    "object" : "agodina",
                    "edge" : "bottom"
                  },
                  "to" : {
                    "object" : "ime_brancha",
                    "edge" : "top"
                  },
                  "expectedDistance" : ">= 0px",
                  "realDistance" : "31px"
                } ],
                "highlight" : [ "agodina", "ime_brancha" ]
              } ]
            }, {
              "name" : "ime_brancha",
              "specs" : [ {
                "status" : "info",
                "place" : {
                  "filePath" : "z3Repozitorij.gspec",
                  "lineNumber" : 39
                },
                "name" : "above posalji_button",
                "meta" : [ {
                  "from" : {
                    "object" : "ime_brancha",
                    "edge" : "bottom"
                  },
                  "to" : {
                    "object" : "posalji_button",
                    "edge" : "top"
                  },
                  "expectedDistance" : ">= 0px",
                  "realDistance" : "13px"
                } ],
                "highlight" : [ "ime_brancha", "posalji_button" ]
              } ]
            } ]
          }, {
            "name" : "Below section",
            "place" : {
              "filePath" : "z3Repozitorij.gspec",
              "lineNumber" : 41
            },
            "objects" : [ {
              "name" : "agodina",
              "specs" : [ {
                "status" : "info",
                "place" : {
                  "filePath" : "z3Repozitorij.gspec",
                  "lineNumber" : 43
                },
                "name" : "below url",
                "meta" : [ {
                  "from" : {
                    "object" : "agodina",
                    "edge" : "top"
                  },
                  "to" : {
                    "object" : "url",
                    "edge" : "bottom"
                  },
                  "expectedDistance" : ">= 0px",
                  "realDistance" : "31px"
                } ],
                "highlight" : [ "agodina", "url" ]
              } ]
            }, {
              "name" : "ime_brancha",
              "specs" : [ {
                "status" : "info",
                "place" : {
                  "filePath" : "z3Repozitorij.gspec",
                  "lineNumber" : 45
                },
                "name" : "below agodina",
                "meta" : [ {
                  "from" : {
                    "object" : "ime_brancha",
                    "edge" : "top"
                  },
                  "to" : {
                    "object" : "agodina",
                    "edge" : "bottom"
                  },
                  "expectedDistance" : ">= 0px",
                  "realDistance" : "31px"
                } ],
                "highlight" : [ "ime_brancha", "agodina" ]
              } ]
            }, {
              "name" : "posalji_button",
              "specs" : [ {
                "status" : "info",
                "place" : {
                  "filePath" : "z3Repozitorij.gspec",
                  "lineNumber" : 47
                },
                "name" : "below ime_brancha",
                "meta" : [ {
                  "from" : {
                    "object" : "posalji_button",
                    "edge" : "top"
                  },
                  "to" : {
                    "object" : "ime_brancha",
                    "edge" : "bottom"
                  },
                  "expectedDistance" : ">= 0px",
                  "realDistance" : "13px"
                } ],
                "highlight" : [ "posalji_button", "ime_brancha" ]
              } ]
            } ]
          }, {
            "name" : "Visible section",
            "place" : {
              "filePath" : "z3Repozitorij.gspec",
              "lineNumber" : 49
            },
            "objects" : [ {
              "name" : "forma-div",
              "specs" : [ {
                "status" : "info",
                "place" : {
                  "filePath" : "z3Repozitorij.gspec",
                  "lineNumber" : 51
                },
                "name" : "visible",
                "highlight" : [ "forma-div" ]
              } ]
            }, {
              "name" : "naslov",
              "specs" : [ {
                "status" : "info",
                "place" : {
                  "filePath" : "z3Repozitorij.gspec",
                  "lineNumber" : 53
                },
                "name" : "visible",
                "highlight" : [ "naslov" ]
              } ]
            } ]
          }, {
            "name" : "Inside partly section",
            "place" : {
              "filePath" : "z3Repozitorij.gspec",
              "lineNumber" : 55
            },
            "objects" : [ {
              "name" : "url",
              "specs" : [ {
                "status" : "info",
                "place" : {
                  "filePath" : "z3Repozitorij.gspec",
                  "lineNumber" : 57
                },
                "name" : "inside partly forma-repozitorij",
                "meta" : [ ],
                "highlight" : [ "url", "forma-repozitorij" ]
              } ]
            }, {
              "name" : "agodina",
              "specs" : [ {
                "status" : "info",
                "place" : {
                  "filePath" : "z3Repozitorij.gspec",
                  "lineNumber" : 59
                },
                "name" : "inside partly forma-repozitorij",
                "meta" : [ ],
                "highlight" : [ "agodina", "forma-repozitorij" ]
              } ]
            }, {
              "name" : "ime_brancha",
              "specs" : [ {
                "status" : "info",
                "place" : {
                  "filePath" : "z3Repozitorij.gspec",
                  "lineNumber" : 61
                },
                "name" : "inside partly forma-repozitorij",
                "meta" : [ ],
                "highlight" : [ "ime_brancha", "forma-repozitorij" ]
              } ]
            }, {
              "name" : "posalji_button",
              "specs" : [ {
                "status" : "info",
                "place" : {
                  "filePath" : "z3Repozitorij.gspec",
                  "lineNumber" : 63
                },
                "name" : "inside partly forma-repozitorij",
                "meta" : [ ],
                "highlight" : [ "posalji_button", "forma-repozitorij" ]
              } ]
            } ]
          } ],
          "objects" : {
            "naslov" : {
              "area" : [ 356, 207, 299, 31 ]
            },
            "forma-repozitorij" : {
              "area" : [ 381, 258, 249, 202 ]
            },
            "ime_brancha" : {
              "area" : [ 381, 392, 257, 22 ]
            },
            "forma-div" : {
              "area" : [ 257, 207, 498, 253 ]
            },
            "agodina" : {
              "area" : [ 381, 339, 257, 22 ]
            },
            "url" : {
              "area" : [ 381, 286, 257, 22 ]
            },
            "posalji_button" : {
              "area" : [ 471, 427, 77, 33 ]
            }
          },
          "screenshot" : "layout-1-screenshot.png",
          "type" : "layout"
        } ],
        "time" : 1636867218883,
        "type" : "node"
      } ],
      "time" : 1636867214868,
      "type" : "node"
    } ]
  }
}