{
  "tests" : [ {
    "name" : "z3Repozitorij.gspec",
    "startedAt" : 1636867214867,
    "endedAt" : 1636867220789,
    "failed" : false,
    "statistic" : {
      "passed" : 16,
      "errors" : 0,
      "warnings" : 0,
      "total" : 16
    },
    "testId" : "1-z3repozitorij.gspec",
    "duration" : 5922,
    "failed" : false
  } ]
}