{
  "tests" : [ {
    "name" : "z1Desktop.gspec",
    "startedAt" : 1636866913465,
    "endedAt" : 1636866920014,
    "failed" : false,
    "statistic" : {
      "passed" : 20,
      "errors" : 0,
      "warnings" : 0,
      "total" : 20
    },
    "testId" : "1-z1desktop.gspec",
    "duration" : 6549,
    "failed" : false
  } ]
}